<?xml version="1.0" encoding="UTF-8"?>
<svg xmlns="http://www.w3.org/2000/svg" xmlns:xlink="http://www.w3.org/1999/xlink" width="400pt" height="400pt" viewBox="0 0 400 400" version="1.1">
<g id="surface1">
<path style=" stroke:none;fill-rule:nonzero;fill:rgb(0%,0%,0%);fill-opacity:1;" d="M 239.3125 142.445312 L 245.679688 157.976562 L 238.769531 151.503906 L 231.136719 157.109375 Z "/>
<path style="fill:none;stroke-width:0.108853;stroke-linecap:butt;stroke-linejoin:miter;stroke:rgb(0%,0%,0%);stroke-opacity:1;stroke-miterlimit:10;" d="M -4.098904 -2.849833 L -4.056306 -3.56101 " transform="matrix(50.526914,0,0,50.526914,443.812004,329.919028)"/>
<path style="fill:none;stroke-width:0.108853;stroke-linecap:butt;stroke-linejoin:miter;stroke:rgb(0%,0%,0%);stroke-opacity:1;stroke-dasharray:0.05,0.05,0.05;stroke-dashoffset:0.05;stroke-miterlimit:10;" d="M -3.975671 -4.630752 L -3.911195 -5.303584 " transform="matrix(50.526914,0,0,50.526914,443.812004,329.919028)"/>
<path style=" stroke:none;fill-rule:nonzero;fill:rgb(0%,0%,0%);fill-opacity:1;" d="M 144.421875 276.992188 L 129.09375 283.835938 L 135.351562 276.730469 L 129.515625 269.273438 Z "/>
<path style="fill:none;stroke-width:0.108853;stroke-linecap:butt;stroke-linejoin:miter;stroke:rgb(0%,0%,0%);stroke-opacity:1;stroke-miterlimit:10;" d="M -6.64048 -1.068217 L -6.074955 -1.051827 " transform="matrix(50.526914,0,0,50.526914,443.812004,329.919028)"/>
<path style="fill:none;stroke-width:0.108853;stroke-linecap:butt;stroke-linejoin:miter;stroke:rgb(0%,0%,0%);stroke-opacity:1;stroke-dasharray:0.05,0.05,0.05;stroke-dashoffset:0.05;stroke-miterlimit:10;" d="M -5.139578 -1.362692 L -4.450743 -2.060495 " transform="matrix(50.526914,0,0,50.526914,443.812004,329.919028)"/>
<path style=" stroke:none;fill-rule:nonzero;fill:rgb(0%,0%,0%);fill-opacity:1;" d="M 171.445312 337.992188 L 163.25 323.34375 L 170.890625 328.933594 L 177.789062 322.449219 Z "/>
<path style="fill:none;stroke-width:0.108853;stroke-linecap:butt;stroke-linejoin:miter;stroke:rgb(0%,0%,0%);stroke-opacity:1;stroke-miterlimit:10;" d="M -5.435599 -0.573354 L -5.39965 0.0104159 " transform="matrix(50.526914,0,0,50.526914,443.812004,329.919028)"/>
<path style=" stroke:none;fill-rule:nonzero;fill:rgb(0%,0%,0%);fill-opacity:1;" d="M 257.6875 215.816406 L 274.253906 213.113281 L 266.390625 218.386719 L 270.128906 227.085938 Z "/>
<path style="fill:none;stroke-width:0.108853;stroke-linecap:butt;stroke-linejoin:miter;stroke:rgb(0%,0%,0%);stroke-opacity:1;stroke-miterlimit:10;" d="M -2.991589 -2.053923 L -3.540183 -2.215888 " transform="matrix(50.526914,0,0,50.526914,443.812004,329.919028)"/>
<path style="fill-rule:nonzero;fill:rgb(0%,0%,0%);fill-opacity:1;stroke-width:0.085491;stroke-linecap:butt;stroke-linejoin:miter;stroke:rgb(0%,0%,0%);stroke-opacity:1;stroke-miterlimit:10;" d="M 0.427477 0.0000319137 C 0.427477 0.23606 0.236057 0.42748 0.0000283265 0.42748 C -0.236077 0.42748 -0.42742 0.23606 -0.42742 0.0000319137 C -0.42742 -0.236074 -0.236077 -0.427417 0.0000283265 -0.427417 C 0.236057 -0.427417 0.427477 -0.236074 0.427477 0.0000319137 Z " transform="matrix(50.526914,0,0,50.526914,235.314975,209.209325)"/>
<path style=" stroke:none;fill-rule:nonzero;fill:rgb(100%,100%,100%);fill-opacity:1;" d="M 234.117188 215.234375 L 235.664062 215.234375 L 235.664062 216.171875 L 232.492188 216.171875 L 232.492188 214.71875 C 232.179688 215.304688 231.777344 215.734375 231.289062 216.015625 C 230.796875 216.285156 230.195312 216.421875 229.476562 216.421875 C 228.320312 216.421875 227.375 215.96875 226.648438 215.0625 C 225.917969 214.148438 225.554688 212.960938 225.554688 211.5 C 225.554688 210.03125 225.917969 208.84375 226.648438 207.9375 C 227.375 207.03125 228.320312 206.578125 229.476562 206.578125 C 230.195312 206.578125 230.796875 206.71875 231.289062 207 C 231.777344 207.273438 232.179688 207.699219 232.492188 208.28125 L 232.492188 203.421875 L 230.960938 203.421875 L 230.960938 202.5 L 234.117188 202.5 Z M 232.492188 211.96875 L 232.492188 211.03125 C 232.492188 209.917969 232.277344 209.0625 231.851562 208.46875 C 231.421875 207.875 230.796875 207.578125 229.976562 207.578125 C 229.140625 207.578125 228.511719 207.90625 228.085938 208.5625 C 227.65625 209.21875 227.445312 210.199219 227.445312 211.5 C 227.445312 212.78125 227.65625 213.757812 228.085938 214.421875 C 228.511719 215.089844 229.140625 215.421875 229.976562 215.421875 C 230.796875 215.421875 231.421875 215.132812 231.851562 214.546875 C 232.277344 213.953125 232.492188 213.09375 232.492188 211.96875 Z "/>
<path style=" stroke:none;fill-rule:nonzero;fill:rgb(100%,100%,100%);fill-opacity:1;" d="M 238.75 216.171875 L 238.75 215.234375 L 241.03125 215.234375 L 241.03125 204.328125 L 238.390625 206.03125 L 238.390625 204.890625 L 241.578125 202.8125 L 242.796875 202.8125 L 242.796875 215.234375 L 245.078125 215.234375 L 245.078125 216.171875 Z "/>
<path style="fill-rule:nonzero;fill:rgb(0%,0%,0%);fill-opacity:1;stroke-width:0.085491;stroke-linecap:butt;stroke-linejoin:miter;stroke:rgb(0%,0%,0%);stroke-opacity:1;stroke-miterlimit:10;" d="M 0.427466 -0.0000139678 C 0.427466 0.236092 0.236046 0.427435 0.0000177579 0.427435 C -0.236088 0.427435 -0.427431 0.236092 -0.427431 -0.0000139678 C -0.427431 -0.236042 -0.236088 -0.427463 0.0000177579 -0.427463 C 0.236046 -0.427463 0.427466 -0.236042 0.427466 -0.0000139678 Z " transform="matrix(50.526914,0,0,50.526914,240.706134,119.160862)"/>
<path style=" stroke:none;fill-rule:nonzero;fill:rgb(100%,100%,100%);fill-opacity:1;" d="M 239.109375 125.183594 L 240.65625 125.183594 L 240.65625 126.121094 L 237.484375 126.121094 L 237.484375 124.667969 C 237.171875 125.253906 236.769531 125.683594 236.28125 125.964844 C 235.789062 126.234375 235.1875 126.371094 234.46875 126.371094 C 233.3125 126.371094 232.367188 125.917969 231.640625 125.011719 C 230.910156 124.097656 230.546875 122.910156 230.546875 121.449219 C 230.546875 119.980469 230.910156 118.792969 231.640625 117.886719 C 232.367188 116.980469 233.3125 116.527344 234.46875 116.527344 C 235.1875 116.527344 235.789062 116.667969 236.28125 116.949219 C 236.769531 117.222656 237.171875 117.648438 237.484375 118.230469 L 237.484375 113.371094 L 235.953125 113.371094 L 235.953125 112.449219 L 239.109375 112.449219 Z M 237.484375 121.917969 L 237.484375 120.980469 C 237.484375 119.867188 237.269531 119.011719 236.84375 118.417969 C 236.414062 117.824219 235.789062 117.527344 234.96875 117.527344 C 234.132812 117.527344 233.503906 117.855469 233.078125 118.511719 C 232.648438 119.167969 232.4375 120.148438 232.4375 121.449219 C 232.4375 122.730469 232.648438 123.707031 233.078125 124.371094 C 233.503906 125.039062 234.132812 125.371094 234.96875 125.371094 C 235.789062 125.371094 236.414062 125.082031 236.84375 124.496094 C 237.269531 123.902344 237.484375 123.042969 237.484375 121.917969 Z "/>
<path style=" stroke:none;fill-rule:nonzero;fill:rgb(100%,100%,100%);fill-opacity:1;" d="M 243.476562 116.121094 L 242.492188 116.121094 L 242.492188 113.792969 C 243.125 113.460938 243.761719 113.207031 244.398438 113.027344 C 245.03125 112.851562 245.652344 112.761719 246.257812 112.761719 C 247.621094 112.761719 248.699219 113.097656 249.492188 113.761719 C 250.28125 114.417969 250.679688 115.316406 250.679688 116.449219 C 250.679688 117.730469 249.78125 119.269531 247.992188 121.058594 C 247.84375 121.195312 247.742188 121.300781 247.679688 121.371094 L 244.367188 124.683594 L 249.835938 124.683594 L 249.835938 123.058594 L 250.867188 123.058594 L 250.867188 126.121094 L 242.398438 126.121094 L 242.398438 125.167969 L 246.382812 121.183594 C 247.257812 120.308594 247.882812 119.507812 248.257812 118.777344 C 248.632812 118.039062 248.820312 117.261719 248.820312 116.449219 C 248.820312 115.566406 248.589844 114.878906 248.132812 114.386719 C 247.671875 113.886719 247.039062 113.636719 246.226562 113.636719 C 245.390625 113.636719 244.746094 113.847656 244.289062 114.261719 C 243.828125 114.679688 243.558594 115.300781 243.476562 116.121094 Z "/>
<path style="fill-rule:nonzero;fill:rgb(0%,0%,0%);fill-opacity:1;stroke-width:0.085491;stroke-linecap:butt;stroke-linejoin:miter;stroke:rgb(0%,0%,0%);stroke-opacity:1;stroke-miterlimit:10;" d="M 0.42742 0.0000249867 C 0.42742 0.236053 0.236077 0.427474 -0.0000287223 0.427474 C -0.236057 0.427474 -0.427477 0.236053 -0.427477 0.0000249867 C -0.427477 -0.236081 -0.236057 -0.427424 -0.0000287223 -0.427424 C 0.236077 -0.427424 0.42742 -0.236081 0.42742 0.0000249867 Z " transform="matrix(50.526914,0,0,50.526914,248.41942,38.7253)"/>
<path style=" stroke:none;fill-rule:nonzero;fill:rgb(100%,100%,100%);fill-opacity:1;" d="M 241.589844 44.75 L 243.136719 44.75 L 243.136719 45.6875 L 239.964844 45.6875 L 239.964844 44.234375 C 239.652344 44.820312 239.25 45.25 238.761719 45.53125 C 238.269531 45.800781 237.667969 45.9375 236.949219 45.9375 C 235.792969 45.9375 234.847656 45.484375 234.121094 44.578125 C 233.390625 43.664062 233.027344 42.476562 233.027344 41.015625 C 233.027344 39.546875 233.390625 38.359375 234.121094 37.453125 C 234.847656 36.546875 235.792969 36.09375 236.949219 36.09375 C 237.667969 36.09375 238.269531 36.234375 238.761719 36.515625 C 239.25 36.789062 239.652344 37.214844 239.964844 37.796875 L 239.964844 32.9375 L 238.433594 32.9375 L 238.433594 32.015625 L 241.589844 32.015625 Z M 239.964844 41.484375 L 239.964844 40.546875 C 239.964844 39.433594 239.75 38.578125 239.324219 37.984375 C 238.894531 37.390625 238.269531 37.09375 237.449219 37.09375 C 236.613281 37.09375 235.984375 37.421875 235.558594 38.078125 C 235.128906 38.734375 234.917969 39.714844 234.917969 41.015625 C 234.917969 42.296875 235.128906 43.273438 235.558594 43.9375 C 235.984375 44.605469 236.613281 44.9375 237.449219 44.9375 C 238.269531 44.9375 238.894531 44.648438 239.324219 44.0625 C 239.75 43.46875 239.964844 42.609375 239.964844 41.484375 Z "/>
<path style=" stroke:none;fill-rule:nonzero;fill:rgb(100%,100%,100%);fill-opacity:1;" d="M 245.953125 35.6875 L 244.96875 35.6875 L 244.96875 33.359375 C 245.601562 33.027344 246.238281 32.773438 246.875 32.59375 C 247.507812 32.417969 248.128906 32.328125 248.734375 32.328125 C 250.097656 32.328125 251.175781 32.664062 251.96875 33.328125 C 252.757812 33.984375 253.15625 34.882812 253.15625 36.015625 C 253.15625 37.296875 252.257812 38.835938 250.46875 40.625 C 250.320312 40.761719 250.21875 40.867188 250.15625 40.9375 L 246.84375 44.25 L 252.3125 44.25 L 252.3125 42.625 L 253.34375 42.625 L 253.34375 45.6875 L 244.875 45.6875 L 244.875 44.734375 L 248.859375 40.75 C 249.734375 39.875 250.359375 39.074219 250.734375 38.34375 C 251.109375 37.605469 251.296875 36.828125 251.296875 36.015625 C 251.296875 35.132812 251.066406 34.445312 250.609375 33.953125 C 250.148438 33.453125 249.515625 33.203125 248.703125 33.203125 C 247.867188 33.203125 247.222656 33.414062 246.765625 33.828125 C 246.304688 34.246094 246.035156 34.867188 245.953125 35.6875 Z "/>
<path style=" stroke:none;fill-rule:nonzero;fill:rgb(100%,100%,100%);fill-opacity:1;" d="M 263.8125 34.8125 L 260.390625 36.421875 L 263.8125 38.046875 L 263.15625 39.078125 L 260.09375 37.171875 L 260.203125 40.515625 L 259.015625 40.515625 L 259.125 37.171875 L 256.0625 39.078125 L 255.40625 38.046875 L 258.84375 36.4375 L 255.40625 34.8125 L 256.0625 33.765625 L 259.125 35.671875 L 259.015625 32.328125 L 260.203125 32.328125 L 260.09375 35.671875 L 263.15625 33.765625 Z "/>
<path style="fill-rule:nonzero;fill:rgb(100%,100%,100%);fill-opacity:1;stroke-width:0.085491;stroke-linecap:butt;stroke-linejoin:miter;stroke:rgb(0%,0%,0%);stroke-opacity:1;stroke-miterlimit:10;" d="M 0.427457 0.0000256398 C 0.427457 0.236054 0.236114 0.427474 0.00000807985 0.427474 C -0.236098 0.427474 -0.42744 0.236054 -0.42744 0.0000256398 C -0.42744 -0.23608 -0.236098 -0.427423 0.00000807985 -0.427423 C 0.236114 -0.427423 0.427457 -0.23608 0.427457 0.0000256398 Z " transform="matrix(50.526914,0,0,50.526914,84.972248,275.272142)"/>
<path style=" stroke:none;fill-rule:nonzero;fill:rgb(0%,0%,0%);fill-opacity:1;" d="M 78.140625 281.296875 L 79.6875 281.296875 L 79.6875 282.234375 L 76.515625 282.234375 L 76.515625 280.78125 C 76.203125 281.367188 75.800781 281.796875 75.3125 282.078125 C 74.820312 282.347656 74.21875 282.484375 73.5 282.484375 C 72.34375 282.484375 71.398438 282.03125 70.671875 281.125 C 69.941406 280.210938 69.578125 279.023438 69.578125 277.5625 C 69.578125 276.09375 69.941406 274.90625 70.671875 274 C 71.398438 273.09375 72.34375 272.640625 73.5 272.640625 C 74.21875 272.640625 74.820312 272.78125 75.3125 273.0625 C 75.800781 273.335938 76.203125 273.761719 76.515625 274.34375 L 76.515625 269.484375 L 74.984375 269.484375 L 74.984375 268.5625 L 78.140625 268.5625 Z M 76.515625 278.03125 L 76.515625 277.09375 C 76.515625 275.980469 76.300781 275.125 75.875 274.53125 C 75.445312 273.9375 74.820312 273.640625 74 273.640625 C 73.164062 273.640625 72.535156 273.96875 72.109375 274.625 C 71.679688 275.28125 71.46875 276.261719 71.46875 277.5625 C 71.46875 278.84375 71.679688 279.820312 72.109375 280.484375 C 72.535156 281.152344 73.164062 281.484375 74 281.484375 C 74.820312 281.484375 75.445312 281.195312 75.875 280.609375 C 76.300781 280.015625 76.515625 279.15625 76.515625 278.03125 Z "/>
<path style=" stroke:none;fill-rule:nonzero;fill:rgb(0%,0%,0%);fill-opacity:1;" d="M 82.507812 272.234375 L 81.523438 272.234375 L 81.523438 269.90625 C 82.15625 269.574219 82.792969 269.320312 83.429688 269.140625 C 84.0625 268.964844 84.683594 268.875 85.289062 268.875 C 86.652344 268.875 87.730469 269.210938 88.523438 269.875 C 89.3125 270.53125 89.710938 271.429688 89.710938 272.5625 C 89.710938 273.84375 88.8125 275.382812 87.023438 277.171875 C 86.875 277.308594 86.773438 277.414062 86.710938 277.484375 L 83.398438 280.796875 L 88.867188 280.796875 L 88.867188 279.171875 L 89.898438 279.171875 L 89.898438 282.234375 L 81.429688 282.234375 L 81.429688 281.28125 L 85.414062 277.296875 C 86.289062 276.421875 86.914062 275.621094 87.289062 274.890625 C 87.664062 274.152344 87.851562 273.375 87.851562 272.5625 C 87.851562 271.679688 87.621094 270.992188 87.164062 270.5 C 86.703125 270 86.070312 269.75 85.257812 269.75 C 84.421875 269.75 83.777344 269.960938 83.320312 270.375 C 82.859375 270.792969 82.589844 271.414062 82.507812 272.234375 Z "/>
<path style=" stroke:none;fill-rule:nonzero;fill:rgb(0%,0%,0%);fill-opacity:1;" d="M 100.367188 271.359375 L 96.945312 272.96875 L 100.367188 274.59375 L 99.710938 275.625 L 96.648438 273.71875 L 96.757812 277.0625 L 95.570312 277.0625 L 95.679688 273.71875 L 92.617188 275.625 L 91.960938 274.59375 L 95.398438 272.984375 L 91.960938 271.359375 L 92.617188 270.3125 L 95.679688 272.21875 L 95.570312 268.875 L 96.757812 268.875 L 96.648438 272.21875 L 99.710938 270.3125 Z "/>
<path style="fill-rule:nonzero;fill:rgb(0%,0%,0%);fill-opacity:1;stroke-width:0.085491;stroke-linecap:butt;stroke-linejoin:miter;stroke:rgb(0%,0%,0%);stroke-opacity:1;stroke-miterlimit:10;" d="M 0.427443 -0.0000299939 C 0.427443 0.236076 0.2361 0.427419 -0.0000054179 0.427419 C -0.236111 0.427419 -0.427454 0.236076 -0.427454 -0.0000299939 C -0.427454 -0.236058 -0.236111 -0.427479 -0.0000054179 -0.427479 C 0.2361 -0.427479 0.427443 -0.236058 0.427443 -0.0000299939 Z " transform="matrix(50.526914,0,0,50.526914,167.738555,277.665578)"/>
<path style=" stroke:none;fill-rule:nonzero;fill:rgb(100%,100%,100%);fill-opacity:1;" d="M 160.90625 283.6875 L 162.453125 283.6875 L 162.453125 284.625 L 159.28125 284.625 L 159.28125 283.171875 C 158.96875 283.757812 158.566406 284.1875 158.078125 284.46875 C 157.585938 284.738281 156.984375 284.875 156.265625 284.875 C 155.109375 284.875 154.164062 284.421875 153.4375 283.515625 C 152.707031 282.601562 152.34375 281.414062 152.34375 279.953125 C 152.34375 278.484375 152.707031 277.296875 153.4375 276.390625 C 154.164062 275.484375 155.109375 275.03125 156.265625 275.03125 C 156.984375 275.03125 157.585938 275.171875 158.078125 275.453125 C 158.566406 275.726562 158.96875 276.152344 159.28125 276.734375 L 159.28125 271.875 L 157.75 271.875 L 157.75 270.953125 L 160.90625 270.953125 Z M 159.28125 280.421875 L 159.28125 279.484375 C 159.28125 278.371094 159.066406 277.515625 158.640625 276.921875 C 158.210938 276.328125 157.585938 276.03125 156.765625 276.03125 C 155.929688 276.03125 155.300781 276.359375 154.875 277.015625 C 154.445312 277.671875 154.234375 278.652344 154.234375 279.953125 C 154.234375 281.234375 154.445312 282.210938 154.875 282.875 C 155.300781 283.542969 155.929688 283.875 156.765625 283.875 C 157.585938 283.875 158.210938 283.585938 158.640625 283 C 159.066406 282.40625 159.28125 281.546875 159.28125 280.421875 Z "/>
<path style=" stroke:none;fill-rule:nonzero;fill:rgb(100%,100%,100%);fill-opacity:1;" d="M 165.539062 284.625 L 165.539062 283.6875 L 167.820312 283.6875 L 167.820312 272.78125 L 165.179688 274.484375 L 165.179688 273.34375 L 168.367188 271.265625 L 169.585938 271.265625 L 169.585938 283.6875 L 171.867188 283.6875 L 171.867188 284.625 Z "/>
<path style=" stroke:none;fill-rule:nonzero;fill:rgb(100%,100%,100%);fill-opacity:1;" d="M 183.132812 273.75 L 179.710938 275.359375 L 183.132812 276.984375 L 182.476562 278.015625 L 179.414062 276.109375 L 179.523438 279.453125 L 178.335938 279.453125 L 178.445312 276.109375 L 175.382812 278.015625 L 174.726562 276.984375 L 178.164062 275.375 L 174.726562 273.75 L 175.382812 272.703125 L 178.445312 274.609375 L 178.335938 271.265625 L 179.523438 271.265625 L 179.414062 274.609375 L 182.476562 272.703125 Z "/>
<path style="fill-rule:nonzero;fill:rgb(100%,100%,100%);fill-opacity:1;stroke-width:0.085491;stroke-linecap:butt;stroke-linejoin:miter;stroke:rgb(0%,0%,0%);stroke-opacity:1;stroke-miterlimit:10;" d="M 0.42744 -0.0000382222 C 0.42744 0.236067 0.236098 0.427488 -0.00000807985 0.427488 C -0.236114 0.427488 -0.427457 0.236067 -0.427457 -0.0000382222 C -0.427457 -0.236067 -0.236114 -0.427487 -0.00000807985 -0.427487 C 0.236098 -0.427487 0.42744 -0.236067 0.42744 -0.0000382222 Z " transform="matrix(50.526914,0,0,50.526914,315.027752,232.748025)"/>
<path style=" stroke:none;fill-rule:nonzero;fill:rgb(0%,0%,0%);fill-opacity:1;" d="M 308.195312 238.769531 L 309.742188 238.769531 L 309.742188 239.707031 L 306.570312 239.707031 L 306.570312 238.253906 C 306.257812 238.839844 305.855469 239.269531 305.367188 239.550781 C 304.875 239.820312 304.273438 239.957031 303.554688 239.957031 C 302.398438 239.957031 301.453125 239.503906 300.726562 238.597656 C 299.996094 237.683594 299.632812 236.496094 299.632812 235.035156 C 299.632812 233.566406 299.996094 232.378906 300.726562 231.472656 C 301.453125 230.566406 302.398438 230.113281 303.554688 230.113281 C 304.273438 230.113281 304.875 230.253906 305.367188 230.535156 C 305.855469 230.808594 306.257812 231.234375 306.570312 231.816406 L 306.570312 226.957031 L 305.039062 226.957031 L 305.039062 226.035156 L 308.195312 226.035156 Z M 306.570312 235.503906 L 306.570312 234.566406 C 306.570312 233.453125 306.355469 232.597656 305.929688 232.003906 C 305.5 231.410156 304.875 231.113281 304.054688 231.113281 C 303.21875 231.113281 302.589844 231.441406 302.164062 232.097656 C 301.734375 232.753906 301.523438 233.734375 301.523438 235.035156 C 301.523438 236.316406 301.734375 237.292969 302.164062 237.957031 C 302.589844 238.625 303.21875 238.957031 304.054688 238.957031 C 304.875 238.957031 305.5 238.667969 305.929688 238.082031 C 306.355469 237.488281 306.570312 236.628906 306.570312 235.503906 Z "/>
<path style=" stroke:none;fill-rule:nonzero;fill:rgb(0%,0%,0%);fill-opacity:1;" d="M 316.546875 235.253906 L 316.546875 228.285156 L 312.0625 235.253906 Z M 320.421875 239.707031 L 314.4375 239.707031 L 314.4375 238.769531 L 316.546875 238.769531 L 316.546875 236.207031 L 310.8125 236.207031 L 310.8125 235.238281 L 316.5625 226.347656 L 318.3125 226.347656 L 318.3125 235.253906 L 320.8125 235.253906 L 320.8125 236.207031 L 318.3125 236.207031 L 318.3125 238.769531 L 320.421875 238.769531 Z "/>
<path style=" stroke:none;fill-rule:nonzero;fill:rgb(0%,0%,0%);fill-opacity:1;" d="M 330.421875 228.832031 L 327 230.441406 L 330.421875 232.066406 L 329.765625 233.097656 L 326.703125 231.191406 L 326.8125 234.535156 L 325.625 234.535156 L 325.734375 231.191406 L 322.671875 233.097656 L 322.015625 232.066406 L 325.453125 230.457031 L 322.015625 228.832031 L 322.671875 227.785156 L 325.734375 229.691406 L 325.625 226.347656 L 326.8125 226.347656 L 326.703125 229.691406 L 329.765625 227.785156 Z "/>
<path style="fill-rule:nonzero;fill:rgb(100%,100%,100%);fill-opacity:1;stroke-width:0.085491;stroke-linecap:butt;stroke-linejoin:miter;stroke:rgb(0%,0%,0%);stroke-opacity:1;stroke-miterlimit:10;" d="M 0.427459 -0.0000249867 C 0.427459 0.236081 0.236039 0.427424 0.0000104548 0.427424 C -0.236095 0.427424 -0.427438 0.236081 -0.427438 -0.0000249867 C -0.427438 -0.236053 -0.236095 -0.427474 0.0000104548 -0.427474 C 0.236039 -0.427474 0.427459 -0.236053 0.427459 -0.0000249867 Z " transform="matrix(50.526914,0,0,50.526914,172.878378,361.2747)"/>
<path style=" stroke:none;fill-rule:nonzero;fill:rgb(0%,0%,0%);fill-opacity:1;" d="M 166.046875 367.296875 L 167.59375 367.296875 L 167.59375 368.234375 L 164.421875 368.234375 L 164.421875 366.78125 C 164.109375 367.367188 163.707031 367.796875 163.21875 368.078125 C 162.726562 368.347656 162.125 368.484375 161.40625 368.484375 C 160.25 368.484375 159.304688 368.03125 158.578125 367.125 C 157.847656 366.210938 157.484375 365.023438 157.484375 363.5625 C 157.484375 362.09375 157.847656 360.90625 158.578125 360 C 159.304688 359.09375 160.25 358.640625 161.40625 358.640625 C 162.125 358.640625 162.726562 358.78125 163.21875 359.0625 C 163.707031 359.335938 164.109375 359.761719 164.421875 360.34375 L 164.421875 355.484375 L 162.890625 355.484375 L 162.890625 354.5625 L 166.046875 354.5625 Z M 164.421875 364.03125 L 164.421875 363.09375 C 164.421875 361.980469 164.207031 361.125 163.78125 360.53125 C 163.351562 359.9375 162.726562 359.640625 161.90625 359.640625 C 161.070312 359.640625 160.441406 359.96875 160.015625 360.625 C 159.585938 361.28125 159.375 362.261719 159.375 363.5625 C 159.375 364.84375 159.585938 365.820312 160.015625 366.484375 C 160.441406 367.152344 161.070312 367.484375 161.90625 367.484375 C 162.726562 367.484375 163.351562 367.195312 163.78125 366.609375 C 164.207031 366.015625 164.421875 365.15625 164.421875 364.03125 Z "/>
<path style=" stroke:none;fill-rule:nonzero;fill:rgb(0%,0%,0%);fill-opacity:1;" d="M 174.398438 363.78125 L 174.398438 356.8125 L 169.914062 363.78125 Z M 178.273438 368.234375 L 172.289062 368.234375 L 172.289062 367.296875 L 174.398438 367.296875 L 174.398438 364.734375 L 168.664062 364.734375 L 168.664062 363.765625 L 174.414062 354.875 L 176.164062 354.875 L 176.164062 363.78125 L 178.664062 363.78125 L 178.664062 364.734375 L 176.164062 364.734375 L 176.164062 367.296875 L 178.273438 367.296875 Z "/>
<path style=" stroke:none;fill-rule:nonzero;fill:rgb(0%,0%,0%);fill-opacity:1;" d="M 188.273438 357.359375 L 184.851562 358.96875 L 188.273438 360.59375 L 187.617188 361.625 L 184.554688 359.71875 L 184.664062 363.0625 L 183.476562 363.0625 L 183.585938 359.71875 L 180.523438 361.625 L 179.867188 360.59375 L 183.304688 358.984375 L 179.867188 357.359375 L 180.523438 356.3125 L 183.585938 358.21875 L 183.476562 354.875 L 184.664062 354.875 L 184.554688 358.21875 L 187.617188 356.3125 Z "/>
</g>
</svg>
