<?xml version="1.0" encoding="UTF-8"?>
<svg xmlns="http://www.w3.org/2000/svg" xmlns:xlink="http://www.w3.org/1999/xlink" width="400pt" height="400pt" viewBox="0 0 400 400" version="1.1">
<defs>
<g>
<symbol overflow="visible" id="glyph0-0">
<path style="stroke:none;" d="M 0.890625 3.1875 L 0.890625 -12.6875 L 9.890625 -12.6875 L 9.890625 3.1875 Z M 1.90625 2.1875 L 8.890625 2.1875 L 8.890625 -11.6875 L 1.90625 -11.6875 Z "/>
</symbol>
<symbol overflow="visible" id="glyph0-1">
<path style="stroke:none;" d="M 9.453125 -0.9375 L 11 -0.9375 L 11 0 L 7.828125 0 L 7.828125 -1.453125 C 7.515625 -0.867188 7.113281 -0.4375 6.625 -0.15625 C 6.132812 0.113281 5.53125 0.25 4.8125 0.25 C 3.65625 0.25 2.710938 -0.203125 1.984375 -1.109375 C 1.253906 -2.023438 0.890625 -3.210938 0.890625 -4.671875 C 0.890625 -6.140625 1.253906 -7.328125 1.984375 -8.234375 C 2.710938 -9.140625 3.65625 -9.59375 4.8125 -9.59375 C 5.53125 -9.59375 6.132812 -9.453125 6.625 -9.171875 C 7.113281 -8.898438 7.515625 -8.472656 7.828125 -7.890625 L 7.828125 -12.75 L 6.296875 -12.75 L 6.296875 -13.671875 L 9.453125 -13.671875 Z M 7.828125 -4.203125 L 7.828125 -5.140625 C 7.828125 -6.253906 7.613281 -7.109375 7.1875 -7.703125 C 6.757812 -8.296875 6.132812 -8.59375 5.3125 -8.59375 C 4.476562 -8.59375 3.847656 -8.265625 3.421875 -7.609375 C 2.992188 -6.953125 2.78125 -5.972656 2.78125 -4.671875 C 2.78125 -3.390625 2.992188 -2.414062 3.421875 -1.75 C 3.847656 -1.082031 4.476562 -0.75 5.3125 -0.75 C 6.132812 -0.75 6.757812 -1.039062 7.1875 -1.625 C 7.613281 -2.21875 7.828125 -3.078125 7.828125 -4.203125 Z "/>
</symbol>
<symbol overflow="visible" id="glyph0-2">
<path style="stroke:none;" d="M 2.5625 0 L 2.5625 -0.9375 L 4.84375 -0.9375 L 4.84375 -11.84375 L 2.203125 -10.140625 L 2.203125 -11.28125 L 5.390625 -13.359375 L 6.609375 -13.359375 L 6.609375 -0.9375 L 8.890625 -0.9375 L 8.890625 0 Z "/>
</symbol>
<symbol overflow="visible" id="glyph0-3">
<path style="stroke:none;" d="M 2.296875 -10 L 1.3125 -10 L 1.3125 -12.328125 C 1.945312 -12.660156 2.582031 -12.914062 3.21875 -13.09375 C 3.851562 -13.269531 4.472656 -13.359375 5.078125 -13.359375 C 6.441406 -13.359375 7.519531 -13.023438 8.3125 -12.359375 C 9.101562 -11.703125 9.5 -10.804688 9.5 -9.671875 C 9.5 -8.390625 8.601562 -6.851562 6.8125 -5.0625 C 6.664062 -4.925781 6.5625 -4.820312 6.5 -4.75 L 3.1875 -1.4375 L 8.65625 -1.4375 L 8.65625 -3.0625 L 9.6875 -3.0625 L 9.6875 0 L 1.21875 0 L 1.21875 -0.953125 L 5.203125 -4.9375 C 6.078125 -5.8125 6.703125 -6.613281 7.078125 -7.34375 C 7.453125 -8.082031 7.640625 -8.859375 7.640625 -9.671875 C 7.640625 -10.554688 7.410156 -11.242188 6.953125 -11.734375 C 6.492188 -12.234375 5.859375 -12.484375 5.046875 -12.484375 C 4.210938 -12.484375 3.566406 -12.273438 3.109375 -11.859375 C 2.648438 -11.441406 2.378906 -10.820312 2.296875 -10 Z "/>
</symbol>
<symbol overflow="visible" id="glyph0-4">
<path style="stroke:none;" d="M 8.703125 -10.875 L 5.28125 -9.265625 L 8.703125 -7.640625 L 8.046875 -6.609375 L 4.984375 -8.515625 L 5.09375 -5.171875 L 3.90625 -5.171875 L 4.015625 -8.515625 L 0.953125 -6.609375 L 0.296875 -7.640625 L 3.734375 -9.25 L 0.296875 -10.875 L 0.953125 -11.921875 L 4.015625 -10.015625 L 3.90625 -13.359375 L 5.09375 -13.359375 L 4.984375 -10.015625 L 8.046875 -11.921875 Z "/>
</symbol>
<symbol overflow="visible" id="glyph0-5">
<path style="stroke:none;" d="M 6.28125 -4.453125 L 6.28125 -11.421875 L 1.796875 -4.453125 Z M 10.15625 0 L 4.171875 0 L 4.171875 -0.9375 L 6.28125 -0.9375 L 6.28125 -3.5 L 0.546875 -3.5 L 0.546875 -4.46875 L 6.296875 -13.359375 L 8.046875 -13.359375 L 8.046875 -4.453125 L 10.546875 -4.453125 L 10.546875 -3.5 L 8.046875 -3.5 L 8.046875 -0.9375 L 10.15625 -0.9375 Z "/>
</symbol>
</g>
</defs>
<g id="surface13">
<path style=" stroke:none;fill-rule:nonzero;fill:rgb(0%,0%,0%);fill-opacity:1;" d="M 58.523438 296.9375 L 67.507812 282.757812 L 66.226562 292.136719 L 75.210938 295.121094 Z "/>
<path style="fill:none;stroke-width:0.0831166;stroke-linecap:butt;stroke-linejoin:miter;stroke:rgb(0%,0%,0%);stroke-opacity:1;stroke-miterlimit:10;" d="M -2.739398 12.476411 L -3.388274 12.88066 " transform="matrix(66.172107,0,0,66.172107,289.150654,-559.402919)"/>
<path style=" stroke:none;fill-rule:nonzero;fill:rgb(0%,0%,0%);fill-opacity:1;" d="M 130.4375 115.417969 L 114.910156 109.035156 L 124.371094 108.667969 L 125.746094 99.300781 Z "/>
<path style="fill:none;stroke-width:0.0831166;stroke-linecap:butt;stroke-linejoin:miter;stroke:rgb(0%,0%,0%);stroke-opacity:1;stroke-miterlimit:10;" d="M -2.986977 9.543068 L -2.474877 10.11296 " transform="matrix(66.172107,0,0,66.172107,289.150654,-559.402919)"/>
<path style="fill:none;stroke-width:0.0831166;stroke-linecap:butt;stroke-linejoin:miter;stroke:rgb(0%,0%,0%);stroke-opacity:1;stroke-dasharray:0.05,0.05,0.05;stroke-dashoffset:0.05;stroke-miterlimit:10;" d="M -2.215728 10.808707 L -2.387392 11.941525 " transform="matrix(66.172107,0,0,66.172107,289.150654,-559.402919)"/>
<path style=" stroke:none;fill-rule:nonzero;fill:rgb(0%,0%,0%);fill-opacity:1;" d="M 210.496094 76.886719 L 203.839844 92.296875 L 203.640625 82.832031 L 194.296875 81.289062 Z "/>
<path style="fill:none;stroke-width:0.0831166;stroke-linecap:butt;stroke-linejoin:miter;stroke:rgb(0%,0%,0%);stroke-opacity:1;stroke-miterlimit:10;" d="M -1.896544 10.229253 L -1.275 9.69053 " transform="matrix(66.172107,0,0,66.172107,289.150654,-559.402919)"/>
<path style=" stroke:none;fill-rule:nonzero;fill:rgb(0%,0%,0%);fill-opacity:1;" d="M 140.308594 273.460938 L 154.625 282.230469 L 145.226562 281.089844 L 142.378906 290.121094 Z "/>
<path style="fill:none;stroke-width:0.0831166;stroke-linecap:butt;stroke-linejoin:miter;stroke:rgb(0%,0%,0%);stroke-opacity:1;stroke-miterlimit:10;" d="M -1.740996 13.375168 L -2.187393 12.682432 " transform="matrix(66.172107,0,0,66.172107,289.150654,-559.402919)"/>
<path style="fill-rule:nonzero;fill:rgb(0%,0%,0%);fill-opacity:1;stroke-width:0.0652782;stroke-linecap:butt;stroke-linejoin:miter;stroke:rgb(0%,0%,0%);stroke-opacity:1;stroke-miterlimit:10;" d="M 0.326389 0.0000275062 C 0.326389 0.180251 0.180286 0.326414 0.00000335306 0.326414 C -0.180279 0.326414 -0.326383 0.180251 -0.326383 0.0000275062 C -0.326383 -0.180255 -0.180279 -0.326418 0.00000335306 -0.326418 C 0.180286 -0.326418 0.326389 -0.180255 0.326389 0.0000275062 Z " transform="matrix(66.172107,0,0,66.172107,127.675559,253.853649)"/>
<g style="fill:rgb(100%,100%,100%);fill-opacity:1;">
  <use xlink:href="#glyph0-1" x="117.023704" y="260.814586"/>
  <use xlink:href="#glyph0-2" x="128.546165" y="260.814586"/>
</g>
<path style="fill-rule:nonzero;fill:rgb(100%,100%,100%);fill-opacity:1;stroke-width:0.0652782;stroke-linecap:butt;stroke-linejoin:miter;stroke:rgb(0%,0%,0%);stroke-opacity:1;stroke-miterlimit:10;" d="M 0.326405 0.0000280076 C 0.326405 0.180252 0.180243 0.326414 0.0000190798 0.326414 C -0.180264 0.326414 -0.326367 0.180252 -0.326367 0.0000280076 C -0.326367 -0.180255 -0.180264 -0.326417 0.0000190798 -0.326417 C 0.180243 -0.326417 0.326405 -0.180255 0.326405 0.0000280076 Z " transform="matrix(66.172107,0,0,66.172107,38.7253,309.271584)"/>
<g style="fill:rgb(0%,0%,0%);fill-opacity:1;">
  <use xlink:href="#glyph0-1" x="27.675007" y="316.232522"/>
  <use xlink:href="#glyph0-3" x="39.197468" y="316.232522"/>
</g>
<path style="fill-rule:nonzero;fill:rgb(100%,100%,100%);fill-opacity:1;stroke-width:0.0652782;stroke-linecap:butt;stroke-linejoin:miter;stroke:rgb(0%,0%,0%);stroke-opacity:1;stroke-miterlimit:10;" d="M 0.326367 0.0000132616 C 0.326367 0.180237 0.180264 0.326399 -0.0000190798 0.326399 C -0.180243 0.326399 -0.326405 0.180237 -0.326405 0.0000132616 C -0.326405 -0.180269 -0.180243 -0.326373 -0.0000190798 -0.326373 C 0.180264 -0.326373 0.326367 -0.180269 0.326367 0.0000132616 Z " transform="matrix(66.172107,0,0,66.172107,361.2747,226.221779)"/>
<g style="fill:rgb(0%,0%,0%);fill-opacity:1;">
  <use xlink:href="#glyph0-1" x="344.99052" y="233.182716"/>
  <use xlink:href="#glyph0-3" x="356.512981" y="233.182716"/>
  <use xlink:href="#glyph0-4" x="367.96513" y="233.182716"/>
</g>
<path style="fill-rule:nonzero;fill:rgb(100%,100%,100%);fill-opacity:1;stroke-width:0.0652782;stroke-linecap:butt;stroke-linejoin:miter;stroke:rgb(0%,0%,0%);stroke-opacity:1;stroke-miterlimit:10;" d="M 0.32642 -0.00000252206 C 0.32642 0.18028 0.180258 0.326384 -0.0000250514 0.326384 C -0.180249 0.326384 -0.326411 0.18028 -0.326411 -0.00000252206 C -0.326411 -0.180285 -0.180249 -0.326389 -0.0000250514 -0.326389 C 0.180258 -0.326389 0.32642 -0.180285 0.32642 -0.00000252206 Z " transform="matrix(66.172107,0,0,66.172107,75.904001,54.730636)"/>
<g style="fill:rgb(0%,0%,0%);fill-opacity:1;">
  <use xlink:href="#glyph0-1" x="59.619822" y="61.691573"/>
  <use xlink:href="#glyph0-3" x="71.142283" y="61.691573"/>
  <use xlink:href="#glyph0-4" x="82.594431" y="61.691573"/>
</g>
<path style="fill-rule:nonzero;fill:rgb(0%,0%,0%);fill-opacity:1;stroke-width:0.0652782;stroke-linecap:butt;stroke-linejoin:miter;stroke:rgb(0%,0%,0%);stroke-opacity:1;stroke-miterlimit:10;" d="M 0.326377 0.0000279909 C 0.326377 0.180252 0.180273 0.326414 -0.0000093527 0.326414 C -0.180233 0.326414 -0.326395 0.180252 -0.326395 0.0000279909 C -0.326395 -0.180255 -0.180233 -0.326417 -0.0000093527 -0.326417 C 0.180273 -0.326417 0.326377 -0.180255 0.326377 0.0000279909 Z " transform="matrix(66.172107,0,0,66.172107,146.027963,132.767679)"/>
<g style="fill:rgb(100%,100%,100%);fill-opacity:1;">
  <use xlink:href="#glyph0-1" x="129.743783" y="139.728617"/>
  <use xlink:href="#glyph0-2" x="141.266244" y="139.728617"/>
  <use xlink:href="#glyph0-4" x="152.718392" y="139.728617"/>
</g>
<path style="fill-rule:nonzero;fill:rgb(100%,100%,100%);fill-opacity:1;stroke-width:0.0652782;stroke-linecap:butt;stroke-linejoin:miter;stroke:rgb(0%,0%,0%);stroke-opacity:1;stroke-miterlimit:10;" d="M 0.326406 0.00000252206 C 0.326406 0.180285 0.180243 0.326389 0.0000197846 0.326389 C -0.180263 0.326389 -0.326366 0.180285 -0.326366 0.00000252206 C -0.326366 -0.18028 -0.180263 -0.326384 0.0000197846 -0.326384 C 0.180243 -0.326384 0.326406 -0.18028 0.326406 0.00000252206 Z " transform="matrix(66.172107,0,0,66.172107,186.580722,345.269364)"/>
<g style="fill:rgb(0%,0%,0%);fill-opacity:1;">
  <use xlink:href="#glyph0-1" x="170.296542" y="352.230302"/>
  <use xlink:href="#glyph0-5" x="181.819003" y="352.230302"/>
  <use xlink:href="#glyph0-4" x="193.271152" y="352.230302"/>
</g>
<path style="fill-rule:nonzero;fill:rgb(100%,100%,100%);fill-opacity:1;stroke-width:0.0652782;stroke-linecap:butt;stroke-linejoin:miter;stroke:rgb(0%,0%,0%);stroke-opacity:1;stroke-miterlimit:10;" d="M 0.32641 -0.00000318547 C 0.32641 0.18028 0.180247 0.326383 0.0000235157 0.326383 C -0.180259 0.326383 -0.326363 0.18028 -0.326363 -0.00000318547 C -0.326363 -0.180286 -0.180259 -0.326389 0.0000235157 -0.326389 C 0.180247 -0.326389 0.32641 -0.180286 0.32641 -0.00000318547 Z " transform="matrix(66.172107,0,0,66.172107,228.123444,61.609586)"/>
<g style="fill:rgb(0%,0%,0%);fill-opacity:1;">
  <use xlink:href="#glyph0-1" x="211.839264" y="68.570523"/>
  <use xlink:href="#glyph0-5" x="223.361725" y="68.570523"/>
  <use xlink:href="#glyph0-4" x="234.813874" y="68.570523"/>
</g>
</g>
</svg>
